\relax 
\@writefile{toc}{\contentsline {chapter}{List of Figures}{ix}}
\@writefile{lof}{\addvspace {10\p@ }}
\@writefile{lot}{\addvspace {10\p@ }}
\@writefile{toc}{\contentsline {chapter}{List of Tables}{xi}}
\@writefile{lof}{\addvspace {10\p@ }}
\@writefile{lot}{\addvspace {10\p@ }}
\@writefile{toc}{\contentsline {chapter}{List of Symbols}{xii}}
\@writefile{lof}{\addvspace {10\p@ }}
\@writefile{lot}{\addvspace {10\p@ }}
\@writefile{toc}{\contentsline {chapter}{Acknowledgments}{xvi}}
\@writefile{lof}{\addvspace {10\p@ }}
\@writefile{lot}{\addvspace {10\p@ }}
\@input{Chapter-0/Chapter-0.aux}
\@input{Chapter-1/Chapter-1.aux}
\@input{Chapter-2/Chapter-2.aux}
\@input{Chapter-3/Chapter-3.aux}
\@input{Chapter-4/Chapter-4.aux}
\@input{Chapter-5/Chapter-5.aux}
\@input{Chapter-6/Chapter-6.aux}
\@input{Chapter-7/Chapter-7.aux}
\@input{Chapter-8/Chapter-8.aux}
\@input{Chapter-9/Chapter-9.aux}
\@input{Appendix-A/Appendix-A.aux}
\@input{Appendix-B/Appendix-B.aux}
\bibstyle{FG-bibstyle}
\bibdata{Biblio-Database}
\bibcite{cfd_wendt}{1}
\bibcite{aero_anderson}{2}
\bibcite{comp_anderson}{3}
\bibcite{aero_houghton}{4}
\bibcite{rollsroyce}{5}
\@writefile{toc}{\contentsline {chapter}{Bibliography}{208}}
\expandafter\gdef\csname eqp@this@eqlistboxi\endcsname{130.56425pt}
\expandafter\gdef\csname eqp@next@eqlistboxi\endcsname{0pt}
