\relax 
\@writefile{toc}{\contentsline {chapter}{\numberline {1}Gas Turbine Theory and Motivation}{1}}
\@writefile{lof}{\addvspace {10\p@ }}
\@writefile{lot}{\addvspace {10\p@ }}
\newlabel{chapter1:introduction}{{1}{1}}
\@writefile{toc}{\contentsline {section}{\numberline {1.1}Introduction}{1}}
\@writefile{toc}{\contentsline {section}{\numberline {1.2}Applications}{3}}
\@writefile{toc}{\contentsline {subsection}{\numberline {1.2.1}Aircraft Propulsion}{4}}
\@writefile{toc}{\contentsline {subsection}{\numberline {1.2.2}Industrial Application}{6}}
\@writefile{toc}{\contentsline {subsection}{\numberline {1.2.3}Marine and Land Transportation}{8}}
\@writefile{toc}{\contentsline {section}{\numberline {1.3}Gas Turbine Design Process}{9}}
\@writefile{toc}{\contentsline {subsection}{\numberline {1.3.1}CFD}{11}}
\@writefile{toc}{\contentsline {subsection}{\numberline {1.3.2}Thermal}{13}}
\@writefile{toc}{\contentsline {subsection}{\numberline {1.3.3}Mechanical}{14}}
\@writefile{toc}{\contentsline {subsection}{\numberline {1.3.4}Lifing}{16}}
\@writefile{toc}{\contentsline {subsection}{\numberline {1.3.5}Structure}{17}}
\@writefile{toc}{\contentsline {subsection}{\numberline {1.3.6}Vibration}{19}}
\@writefile{toc}{\contentsline {subsection}{\numberline {1.3.7}Cost}{21}}
\@writefile{toc}{\contentsline {subsection}{\numberline {1.3.8}Manufacturing and Assembly}{22}}
\@writefile{toc}{\contentsline {subsection}{\numberline {1.3.9}Design Process}{24}}
\@writefile{toc}{\contentsline {subsection}{\numberline {1.3.10}Derivation and Combinations}{25}}
\@writefile{toc}{\contentsline {section}{\numberline {1.4}Future of Gas Turbine}{27}}
\@writefile{lof}{\contentsline {figure}{\numberline {1.1}{\ignorespaces Gas Turbine Design Process\relax }}{28}}
\@writefile{lof}{\contentsline {figure}{\numberline {1.2}{\ignorespaces Cl VS Alpha Curve\relax }}{29}}
\@writefile{lof}{\contentsline {figure}{\numberline {1.3}{\ignorespaces Generated plots\relax }}{30}}
\citation{cfd_wendt}
\citation{aero_anderson}
\citation{comp_anderson}
\citation{aero_houghton}
\@setckpt{Chapter-0/Chapter-0}{
\setcounter{page}{32}
\setcounter{equation}{0}
\setcounter{enumi}{0}
\setcounter{enumii}{0}
\setcounter{enumiii}{0}
\setcounter{enumiv}{0}
\setcounter{footnote}{0}
\setcounter{mpfootnote}{0}
\setcounter{part}{0}
\setcounter{chapter}{1}
\setcounter{section}{4}
\setcounter{subsection}{0}
\setcounter{subsubsection}{0}
\setcounter{paragraph}{0}
\setcounter{subparagraph}{0}
\setcounter{figure}{3}
\setcounter{table}{0}
\setcounter{lofdepth}{1}
\setcounter{lotdepth}{1}
\setcounter{parentequation}{0}
\setcounter{blindtext}{1}
\setcounter{Blindtext}{5}
\setcounter{blind@countparstart}{0}
\setcounter{blindlist}{0}
\setcounter{blindlistlevel}{0}
\setcounter{blindlist@level}{0}
\setcounter{blind@listcount}{0}
\setcounter{blind@levelcount}{0}
\setcounter{blind@randomcount}{0}
\setcounter{blind@randommax}{1}
\setcounter{blind@pangramcount}{0}
\setcounter{blind@pangrammax}{1}
\setcounter{LT@tables}{0}
\setcounter{LT@chunks}{0}
\setcounter{ContinuedFloat}{0}
\setcounter{subfigure}{7}
\setcounter{subtable}{0}
}
