\relax 
\@writefile{toc}{\contentsline {chapter}{\numberline {B}Thin Airfoil Theory}{192}}
\@writefile{lof}{\addvspace {10\p@ }}
\@writefile{lot}{\addvspace {10\p@ }}
\@writefile{toc}{\contentsline {section}{\numberline {B.1}Introduction}{192}}
\@writefile{toc}{\contentsline {section}{\numberline {B.2}Elementary Flows}{194}}
\@writefile{toc}{\contentsline {subsection}{\numberline {B.2.1}Uniform Flow}{195}}
\newlabel{potential function}{{B.1}{195}}
\newlabel{streanfunction}{{B.2}{195}}
\@writefile{lof}{\contentsline {figure}{\numberline {B.1}{\ignorespaces Uniform Flow\relax }}{196}}
\@writefile{toc}{\contentsline {subsection}{\numberline {B.2.2}Source Flow}{196}}
\@writefile{lof}{\contentsline {figure}{\numberline {B.2}{\ignorespaces $ M - \theta - \beta $ relationship\relax }}{197}}
\@writefile{lof}{\contentsline {figure}{\numberline {B.3}{\ignorespaces Source Flow\relax }}{198}}
\@writefile{lof}{\contentsline {figure}{\numberline {B.4}{\ignorespaces Sink Flow\relax }}{199}}
\@writefile{toc}{\contentsline {subsection}{\numberline {B.2.3}Doublets Flow}{199}}
\@writefile{lof}{\contentsline {figure}{\numberline {B.5}{\ignorespaces Doublet Flow\relax }}{201}}
\@writefile{toc}{\contentsline {subsection}{\numberline {B.2.4}Vortex Flow}{201}}
\@writefile{lof}{\contentsline {figure}{\numberline {B.6}{\ignorespaces Vortex Flow\relax }}{203}}
\@writefile{toc}{\contentsline {section}{\numberline {B.3}Methodology}{203}}
\@writefile{toc}{\contentsline {section}{\numberline {B.4}Thin Airfoil Theory for NACA Airfoils}{205}}
\@writefile{lof}{\contentsline {figure}{\numberline {B.7}{\ignorespaces Thin Airfoil Representation\relax }}{207}}
\@writefile{lof}{\contentsline {figure}{\numberline {B.8}{\ignorespaces Determination of the normal component of free stream velocity\relax }}{207}}
\@setckpt{Appendix-B/Appendix-B}{
\setcounter{page}{208}
\setcounter{equation}{2}
\setcounter{enumi}{0}
\setcounter{enumii}{0}
\setcounter{enumiii}{0}
\setcounter{enumiv}{0}
\setcounter{footnote}{0}
\setcounter{mpfootnote}{0}
\setcounter{part}{0}
\setcounter{chapter}{2}
\setcounter{section}{4}
\setcounter{subsection}{0}
\setcounter{subsubsection}{0}
\setcounter{paragraph}{0}
\setcounter{subparagraph}{0}
\setcounter{figure}{8}
\setcounter{table}{0}
\setcounter{lofdepth}{1}
\setcounter{lotdepth}{1}
\setcounter{parentequation}{0}
\setcounter{blindtext}{1}
\setcounter{Blindtext}{5}
\setcounter{blind@countparstart}{0}
\setcounter{blindlist}{0}
\setcounter{blindlistlevel}{0}
\setcounter{blindlist@level}{0}
\setcounter{blind@listcount}{0}
\setcounter{blind@levelcount}{0}
\setcounter{blind@randomcount}{0}
\setcounter{blind@randommax}{1}
\setcounter{blind@pangramcount}{0}
\setcounter{blind@pangrammax}{1}
\setcounter{LT@tables}{0}
\setcounter{LT@chunks}{0}
\setcounter{ContinuedFloat}{0}
\setcounter{subfigure}{0}
\setcounter{subtable}{0}
}
