\relax 
\citation{plotkin}
\citation{mason}
\citation{cfd_anderson}
\citation{gilbert}
\citation{anderson_performance}
\citation{anderson_flight}
\citation{rollsroyce}
\citation{comp_anderson}
\citation{aero_anderson}
\citation{davidrogers}
\citation{cfd_wendt}
\citation{dixon}
\citation{plotkin}
\citation{mason}
\citation{pope}
\citation{mattingly}
\citation{rogers}
\citation{davidrogers}
\citation{aero_houghton}
\citation{mattingly}
\citation{ganesan}
\citation{boundarylayer}
\citation{davidson}
\citation{mattingly}
\@writefile{toc}{\contentsline {chapter}{\numberline {1}Gas Turbine Theory and Motivation}{1}}
\@writefile{lof}{\addvspace {10\p@ }}
\@writefile{lot}{\addvspace {10\p@ }}
\@writefile{toc}{\contentsline {section}{\numberline {1.1}\tolerance 9999\emergencystretch 3em\hfuzz .5\p@ \vfuzz \hfuzz Introduction}{1}}
\@writefile{toc}{\contentsline {subsection}{\numberline {1.1.1}This is a Subsection}{1}}
\@writefile{toc}{\contentsline {subsection}{\numberline {1.1.2}Aircraft Propulsion}{2}}
\@writefile{lot}{\contentsline {table}{\numberline {1.1}{\ignorespaces Multicolumn table\relax }}{5}}
\@writefile{lot}{\contentsline {table}{\numberline {1.2}{\ignorespaces Table to test captions and labels\relax }}{5}}
\gdef \LT@i {\LT@entry 
    {5}{75.43129pt}\LT@entry 
    {1}{86.94644pt}}
\newlabel{long}{{1.3}{6}}
\@writefile{lot}{\contentsline {table}{\numberline {1.3}{\ignorespaces Long table caption.\relax }}{6}}
\@writefile{toc}{\contentsline {subsubsection}{\numberline {1.1.2.1}This is a Subsubsection}{6}}
\@writefile{toc}{\contentsline {section}{\numberline {1.2}More Declaration}{7}}
\@writefile{lof}{\contentsline {figure}{\numberline {1.1}{\ignorespaces Rolls Royce PLC Conway Cutway\relax }}{8}}
\@writefile{lof}{\contentsline {figure}{\numberline {1.2}{\ignorespaces Rolls Royce PLC Conway Cutway\relax }}{9}}
\@writefile{lof}{\contentsline {figure}{\numberline {1.3}{\ignorespaces Rolls Royce PLC Conway Cutway\relax }}{10}}
\@writefile{lof}{\contentsline {figure}{\numberline {1.4}{\ignorespaces Rolls Royce PLC Conway Cutway\relax }}{11}}
\@writefile{lof}{\contentsline {figure}{\numberline {1.5}{\ignorespaces Typical gas turbine design procedure\relax }}{12}}
\@writefile{lof}{\contentsline {figure}{\numberline {1.6}{\ignorespaces CaptionText.\relax }}{13}}
\@writefile{lof}{\contentsline {figure}{\numberline {1.7}{\ignorespaces The same cup of coffee. Two times.\relax }}{13}}
\@writefile{lof}{\contentsline {figure}{\numberline {1.8}{\ignorespaces The same cup of coffee. Multiple times.\relax }}{14}}
\@writefile{lof}{\contentsline {figure}{\numberline {1.9}{\ignorespaces Cl VS Alpha Curve\relax }}{14}}
\@writefile{lof}{\contentsline {figure}{\numberline {1.10}{\ignorespaces The same cup of coffee. Multiple times.\relax }}{15}}
\@setckpt{Sample/sample}{
\setcounter{page}{16}
\setcounter{equation}{1}
\setcounter{enumi}{0}
\setcounter{enumii}{0}
\setcounter{enumiii}{0}
\setcounter{enumiv}{0}
\setcounter{footnote}{0}
\setcounter{mpfootnote}{0}
\setcounter{part}{0}
\setcounter{chapter}{1}
\setcounter{section}{2}
\setcounter{subsection}{0}
\setcounter{subsubsection}{0}
\setcounter{paragraph}{0}
\setcounter{subparagraph}{0}
\setcounter{figure}{10}
\setcounter{table}{3}
\setcounter{lofdepth}{1}
\setcounter{lotdepth}{1}
\setcounter{parentequation}{0}
\setcounter{blindtext}{1}
\setcounter{Blindtext}{5}
\setcounter{blind@countparstart}{0}
\setcounter{blindlist}{0}
\setcounter{blindlistlevel}{0}
\setcounter{blindlist@level}{0}
\setcounter{blind@listcount}{0}
\setcounter{blind@levelcount}{0}
\setcounter{blind@randomcount}{0}
\setcounter{blind@randommax}{0}
\setcounter{blind@pangramcount}{0}
\setcounter{blind@pangrammax}{0}
\setcounter{LT@tables}{1}
\setcounter{LT@chunks}{5}
\setcounter{ContinuedFloat}{0}
\setcounter{subfigure}{7}
\setcounter{subtable}{0}
}
