\relax 
\@writefile{toc}{\contentsline {chapter}{\numberline {4}Axial Gas Turbine Aerodynamics}{39}}
\@writefile{lof}{\addvspace {10\p@ }}
\@writefile{lot}{\addvspace {10\p@ }}
\@writefile{toc}{\contentsline {section}{\numberline {4.1}Introduction}{39}}
\citation{rollsroyce}
\citation{rollsroyce}
\citation{rollsroyce}
\@writefile{toc}{\contentsline {subsection}{\numberline {4.1.1}Basic Operation}{40}}
\@writefile{lof}{\contentsline {figure}{\numberline {4.1}{\ignorespaces 8-Stage intermediate pressure ratio compressor, courtesy Rolls-Royce\relax }}{41}}
\providecommand*\caption@xref[2]{\@setref\relax\@undefined{#1}}
\newlabel{fig:ipcomp}{{4.1}{41}}
\@writefile{lof}{\contentsline {figure}{\numberline {4.2}{\ignorespaces compressor cascade\relax }}{42}}
\newlabel{fig:compcascade}{{4.2}{42}}
\@writefile{toc}{\contentsline {section}{\numberline {4.2}Elementary Theory}{42}}
\@writefile{lof}{\contentsline {figure}{\numberline {4.3}{\ignorespaces turbine cascade\relax }}{43}}
\@writefile{toc}{\contentsline {section}{\numberline {4.3}Factors Affecting Stage Pressure Ratio}{45}}
\@writefile{toc}{\contentsline {subsection}{\numberline {4.3.1}Tip Speed}{46}}
\@writefile{toc}{\contentsline {subsection}{\numberline {4.3.2}Axial Velocity}{48}}
\@writefile{toc}{\contentsline {subsection}{\numberline {4.3.3}High fluid deflections in rotor blades}{49}}
\@writefile{lot}{\contentsline {table}{\numberline {4.1}{\ignorespaces Different design laws\relax }}{51}}
\newlabel{table:Different_Engines}{{4.1}{51}}
\@writefile{lot}{\contentsline {table}{\numberline {4.2}{\ignorespaces Engine thrust comparison over years\relax }}{51}}
\newlabel{table:thrust_comp}{{4.2}{51}}
\@writefile{lof}{\contentsline {figure}{\numberline {4.4}{\ignorespaces velocity triangles at compressor cascade\relax }}{52}}
\@writefile{lot}{\contentsline {table}{\numberline {4.3}{\ignorespaces Different design laws\relax }}{52}}
\newlabel{table:design_laws}{{4.3}{52}}
\@writefile{toc}{\contentsline {section}{\numberline {4.4}Blockage in the compressor annulus}{52}}
\@writefile{lof}{\contentsline {figure}{\numberline {4.5}{\ignorespaces compressor cascade\relax }}{53}}
\@writefile{lof}{\contentsline {figure}{\numberline {4.6}{\ignorespaces turbine cascade nomenclature\relax }}{54}}
\@writefile{toc}{\contentsline {section}{\numberline {4.5}Degree of reaction}{55}}
\@writefile{toc}{\contentsline {section}{\numberline {4.6}Meanline Analysis}{57}}
\@writefile{toc}{\contentsline {section}{\numberline {4.7}Three Dimensional flow}{58}}
\@writefile{toc}{\contentsline {subsection}{\numberline {4.7.1}Radial Equilibrium of fluid Element}{60}}
\@writefile{toc}{\contentsline {subsection}{\numberline {4.7.2}Free Vortex}{62}}
\@writefile{toc}{\contentsline {subsection}{\numberline {4.7.3}Exponential}{63}}
\@writefile{toc}{\contentsline {subsection}{\numberline {4.7.4}First Power}{65}}
\@writefile{toc}{\contentsline {section}{\numberline {4.8}Design Process}{66}}
\@writefile{toc}{\contentsline {subsection}{\numberline {4.8.1}Determination of rotational speed and annulus dimensions}{68}}
\@writefile{toc}{\contentsline {subsection}{\numberline {4.8.2}Estimation of number of stages}{70}}
\@writefile{toc}{\contentsline {subsection}{\numberline {4.8.3}Stage by Stage Design}{71}}
\@writefile{toc}{\contentsline {subsection}{\numberline {4.8.4}Variation of air angles from root to tip}{73}}
\@writefile{toc}{\contentsline {section}{\numberline {4.9}Blade Design}{74}}
\@writefile{toc}{\contentsline {subsection}{\numberline {4.9.1}Cascade Notation}{76}}
\@writefile{toc}{\contentsline {subsection}{\numberline {4.9.2}Construction of blade shape}{78}}
\@writefile{toc}{\contentsline {section}{\numberline {4.10}Calculation of stage performance}{79}}
\@writefile{toc}{\contentsline {section}{\numberline {4.11}Off-Design performance}{81}}
\@writefile{toc}{\contentsline {section}{\numberline {4.12}Axial compressor characteristics}{82}}
\@setckpt{Chapter-3/Chapter-3}{
\setcounter{page}{85}
\setcounter{equation}{0}
\setcounter{enumi}{0}
\setcounter{enumii}{0}
\setcounter{enumiii}{0}
\setcounter{enumiv}{0}
\setcounter{footnote}{0}
\setcounter{mpfootnote}{0}
\setcounter{part}{0}
\setcounter{chapter}{4}
\setcounter{section}{12}
\setcounter{subsection}{0}
\setcounter{subsubsection}{0}
\setcounter{paragraph}{0}
\setcounter{subparagraph}{0}
\setcounter{figure}{6}
\setcounter{table}{3}
\setcounter{lofdepth}{1}
\setcounter{lotdepth}{1}
\setcounter{parentequation}{0}
\setcounter{blindtext}{1}
\setcounter{Blindtext}{5}
\setcounter{blind@countparstart}{0}
\setcounter{blindlist}{0}
\setcounter{blindlistlevel}{0}
\setcounter{blindlist@level}{0}
\setcounter{blind@listcount}{0}
\setcounter{blind@levelcount}{0}
\setcounter{blind@randomcount}{0}
\setcounter{blind@randommax}{1}
\setcounter{blind@pangramcount}{0}
\setcounter{blind@pangrammax}{1}
\setcounter{LT@tables}{0}
\setcounter{LT@chunks}{0}
\setcounter{ContinuedFloat}{0}
\setcounter{subfigure}{0}
\setcounter{subtable}{0}
}
