\relax 
\@writefile{toc}{\renewcommand{\cftchappresnum}{Appendix }}
\@writefile{toc}{\contentsline {chapter}{\numberline {A}Gas Dynamics}{178}}
\@writefile{lof}{\addvspace {10\p@ }}
\@writefile{lot}{\addvspace {10\p@ }}
\@writefile{toc}{\contentsline {section}{\numberline {A.1}Compressibility Effects}{178}}
\@writefile{toc}{\contentsline {section}{\numberline {A.2}Basic Equation for Steady One-Dimensional Compressible Flow of a perfect gas in duct}{180}}
\@writefile{toc}{\contentsline {section}{\numberline {A.3}Isentropic Flow}{181}}
\@writefile{toc}{\contentsline {section}{\numberline {A.4}Normal Shock}{183}}
\@writefile{toc}{\contentsline {section}{\numberline {A.5}Oblique Shock}{185}}
\@writefile{toc}{\contentsline {section}{\numberline {A.6}Expansion Waves}{186}}
\@writefile{toc}{\contentsline {section}{\numberline {A.7}Rayleigh Flow}{188}}
\@writefile{toc}{\contentsline {section}{\numberline {A.8}Fanno Flow}{190}}
\@setckpt{Appendix-A/Appendix-A}{
\setcounter{page}{192}
\setcounter{equation}{0}
\setcounter{enumi}{0}
\setcounter{enumii}{0}
\setcounter{enumiii}{0}
\setcounter{enumiv}{0}
\setcounter{footnote}{0}
\setcounter{mpfootnote}{0}
\setcounter{part}{0}
\setcounter{chapter}{1}
\setcounter{section}{8}
\setcounter{subsection}{0}
\setcounter{subsubsection}{0}
\setcounter{paragraph}{0}
\setcounter{subparagraph}{0}
\setcounter{figure}{0}
\setcounter{table}{0}
\setcounter{lofdepth}{1}
\setcounter{lotdepth}{1}
\setcounter{parentequation}{0}
\setcounter{blindtext}{1}
\setcounter{Blindtext}{5}
\setcounter{blind@countparstart}{0}
\setcounter{blindlist}{0}
\setcounter{blindlistlevel}{0}
\setcounter{blindlist@level}{0}
\setcounter{blind@listcount}{0}
\setcounter{blind@levelcount}{0}
\setcounter{blind@randomcount}{0}
\setcounter{blind@randommax}{1}
\setcounter{blind@pangramcount}{0}
\setcounter{blind@pangrammax}{1}
\setcounter{LT@tables}{0}
\setcounter{LT@chunks}{0}
\setcounter{ContinuedFloat}{0}
\setcounter{subfigure}{0}
\setcounter{subtable}{0}
}
