\relax 
\@writefile{toc}{\contentsline {chapter}{\numberline {8}Integrated Gas Turbine Design}{147}}
\@writefile{lof}{\addvspace {10\p@ }}
\@writefile{lot}{\addvspace {10\p@ }}
\@writefile{toc}{\contentsline {section}{\numberline {8.1}Elementary Theory of Axial Flow Turbine}{147}}
\@writefile{toc}{\contentsline {section}{\numberline {8.2}Vortex Theory}{149}}
\@writefile{toc}{\contentsline {section}{\numberline {8.3}Choice of Blade Profile, Pitch and Chord}{150}}
\@writefile{toc}{\contentsline {section}{\numberline {8.4}Estimation of Stage Performance}{152}}
\@writefile{toc}{\contentsline {section}{\numberline {8.5}Overall Turbine Performance}{153}}
\@writefile{toc}{\contentsline {section}{\numberline {8.6}The cooled Turbine}{155}}
\@setckpt{Chapter-7/Chapter-7}{
\setcounter{page}{157}
\setcounter{equation}{0}
\setcounter{enumi}{0}
\setcounter{enumii}{0}
\setcounter{enumiii}{0}
\setcounter{enumiv}{0}
\setcounter{footnote}{0}
\setcounter{mpfootnote}{0}
\setcounter{part}{0}
\setcounter{chapter}{8}
\setcounter{section}{6}
\setcounter{subsection}{0}
\setcounter{subsubsection}{0}
\setcounter{paragraph}{0}
\setcounter{subparagraph}{0}
\setcounter{figure}{0}
\setcounter{table}{0}
\setcounter{lofdepth}{1}
\setcounter{lotdepth}{1}
\setcounter{parentequation}{0}
\setcounter{blindtext}{1}
\setcounter{Blindtext}{5}
\setcounter{blind@countparstart}{0}
\setcounter{blindlist}{0}
\setcounter{blindlistlevel}{0}
\setcounter{blindlist@level}{0}
\setcounter{blind@listcount}{0}
\setcounter{blind@levelcount}{0}
\setcounter{blind@randomcount}{0}
\setcounter{blind@randommax}{1}
\setcounter{blind@pangramcount}{0}
\setcounter{blind@pangrammax}{1}
\setcounter{LT@tables}{0}
\setcounter{LT@chunks}{0}
\setcounter{ContinuedFloat}{0}
\setcounter{subfigure}{0}
\setcounter{subtable}{0}
}
