\relax 
\@writefile{toc}{\contentsline {chapter}{\numberline {5}Basic Airfoil Theory and Airfoil Selection}{85}}
\@writefile{lof}{\addvspace {10\p@ }}
\@writefile{lot}{\addvspace {10\p@ }}
\@writefile{toc}{\contentsline {section}{\numberline {5.1}Introduction}{85}}
\@writefile{toc}{\contentsline {section}{\numberline {5.2}Objective}{86}}
\@writefile{toc}{\contentsline {section}{\numberline {5.3}Joukowsky Transformation}{86}}
\@writefile{lof}{\contentsline {figure}{\numberline {5.1}{\ignorespaces The circle is transformed into airfoil\relax }}{87}}
\@writefile{toc}{\contentsline {section}{\numberline {5.4}Inverse Design}{87}}
\@writefile{lof}{\contentsline {figure}{\numberline {5.2}{\ignorespaces transformed airfoil\relax }}{88}}
\@writefile{lof}{\contentsline {figure}{\numberline {5.3}{\ignorespaces transformed airfoil\relax }}{89}}
\@writefile{lof}{\contentsline {figure}{\numberline {5.4}{\ignorespaces panel airfoil\relax }}{89}}
\@setckpt{Chapter-4/Chapter-4}{
\setcounter{page}{91}
\setcounter{equation}{0}
\setcounter{enumi}{0}
\setcounter{enumii}{0}
\setcounter{enumiii}{0}
\setcounter{enumiv}{0}
\setcounter{footnote}{0}
\setcounter{mpfootnote}{0}
\setcounter{part}{0}
\setcounter{chapter}{5}
\setcounter{section}{4}
\setcounter{subsection}{0}
\setcounter{subsubsection}{0}
\setcounter{paragraph}{0}
\setcounter{subparagraph}{0}
\setcounter{figure}{4}
\setcounter{table}{0}
\setcounter{lofdepth}{1}
\setcounter{lotdepth}{1}
\setcounter{parentequation}{0}
\setcounter{blindtext}{1}
\setcounter{Blindtext}{5}
\setcounter{blind@countparstart}{0}
\setcounter{blindlist}{0}
\setcounter{blindlistlevel}{0}
\setcounter{blindlist@level}{0}
\setcounter{blind@listcount}{0}
\setcounter{blind@levelcount}{0}
\setcounter{blind@randomcount}{0}
\setcounter{blind@randommax}{1}
\setcounter{blind@pangramcount}{0}
\setcounter{blind@pangrammax}{1}
\setcounter{LT@tables}{0}
\setcounter{LT@chunks}{0}
\setcounter{ContinuedFloat}{0}
\setcounter{subfigure}{0}
\setcounter{subtable}{0}
}
