\relax 
\@writefile{toc}{\contentsline {chapter}{\numberline {6}Boundary Layer Interaction with Inviscid methods}{91}}
\@writefile{lof}{\addvspace {10\p@ }}
\@writefile{lot}{\addvspace {10\p@ }}
\@writefile{toc}{\contentsline {section}{\numberline {6.1}Introduction}{93}}
\@writefile{toc}{\contentsline {section}{\numberline {6.2}Panel Method}{94}}
\@writefile{toc}{\contentsline {section}{\numberline {6.3}Euler's Method}{96}}
\@writefile{toc}{\contentsline {section}{\numberline {6.4}Boundary Layer Interaction}{97}}
\@writefile{toc}{\contentsline {section}{\numberline {6.5}MISES Results}{99}}
\@writefile{toc}{\contentsline {section}{\numberline {6.6}Inlet Guide Vane}{101}}
\@writefile{lof}{\contentsline {figure}{\numberline {6.1}{\ignorespaces MISES Results\relax }}{103}}
\@writefile{lof}{\contentsline {figure}{\numberline {6.2}{\ignorespaces MISES Results\relax }}{105}}
\@writefile{lof}{\contentsline {figure}{\numberline {6.3}{\ignorespaces MISES Results\relax }}{107}}
\@writefile{lof}{\contentsline {figure}{\numberline {6.4}{\ignorespaces MISES Results\relax }}{109}}
\@writefile{toc}{\contentsline {section}{\numberline {6.7}Intermediate Pressure Compressor}{109}}
\@writefile{lof}{\contentsline {figure}{\numberline {6.5}{\ignorespaces MISES Results\relax }}{111}}
\@writefile{lof}{\contentsline {figure}{\numberline {6.6}{\ignorespaces MISES Results\relax }}{113}}
\@writefile{lof}{\contentsline {figure}{\numberline {6.7}{\ignorespaces MISES Results\relax }}{116}}
\@writefile{lof}{\contentsline {figure}{\numberline {6.8}{\ignorespaces MISES Results\relax }}{118}}
\@writefile{lof}{\contentsline {figure}{\numberline {6.9}{\ignorespaces MISES Results\relax }}{120}}
\@writefile{lof}{\contentsline {figure}{\numberline {6.10}{\ignorespaces MISES Results\relax }}{122}}
\@writefile{toc}{\contentsline {section}{\numberline {6.8}High Pressure Compressor}{124}}
\@writefile{lof}{\contentsline {figure}{\numberline {6.11}{\ignorespaces MISES Results\relax }}{126}}
\@writefile{lof}{\contentsline {figure}{\numberline {6.12}{\ignorespaces MISES Results\relax }}{128}}
\@writefile{lof}{\contentsline {figure}{\numberline {6.13}{\ignorespaces MISES Results\relax }}{130}}
\@writefile{lof}{\contentsline {figure}{\numberline {6.14}{\ignorespaces MISES Results\relax }}{132}}
\@writefile{lof}{\contentsline {figure}{\numberline {6.15}{\ignorespaces MISES Results\relax }}{134}}
\@setckpt{Chapter-5/Chapter-5}{
\setcounter{page}{137}
\setcounter{equation}{0}
\setcounter{enumi}{0}
\setcounter{enumii}{0}
\setcounter{enumiii}{0}
\setcounter{enumiv}{0}
\setcounter{footnote}{0}
\setcounter{mpfootnote}{0}
\setcounter{part}{0}
\setcounter{chapter}{6}
\setcounter{section}{8}
\setcounter{subsection}{0}
\setcounter{subsubsection}{0}
\setcounter{paragraph}{0}
\setcounter{subparagraph}{0}
\setcounter{figure}{15}
\setcounter{table}{0}
\setcounter{lofdepth}{1}
\setcounter{lotdepth}{1}
\setcounter{parentequation}{0}
\setcounter{blindtext}{1}
\setcounter{Blindtext}{5}
\setcounter{blind@countparstart}{0}
\setcounter{blindlist}{0}
\setcounter{blindlistlevel}{0}
\setcounter{blindlist@level}{0}
\setcounter{blind@listcount}{0}
\setcounter{blind@levelcount}{0}
\setcounter{blind@randomcount}{0}
\setcounter{blind@randommax}{1}
\setcounter{blind@pangramcount}{0}
\setcounter{blind@pangrammax}{1}
\setcounter{LT@tables}{0}
\setcounter{LT@chunks}{0}
\setcounter{ContinuedFloat}{0}
\setcounter{subfigure}{0}
\setcounter{subtable}{0}
}
